<?xml version="1.0" encoding="UTF-8"?>
<svg width="16px" height="23px" viewBox="0 0 16 23" version="1.1" xmlns="http://www.w3.org/2000/svg" xmlns:xlink="http://www.w3.org/1999/xlink">
    <!-- Generator: Sketch 43.1 (39012) - http://www.bohemiancoding.com/sketch -->
    <title>espace_detante</title>
    <desc>Created with Sketch.</desc>
    <defs></defs>
    <g id="Desktop-eDesk" stroke="none" stroke-width="1" fill="none" fill-rule="evenodd">
        <g id="Menu" transform="translate(-63.000000, -479.000000)" fill="#000000">
            <path d="M63,488.34375 L63,498.40625 C63,499.649688 63.76,502 66.6363636,502 L72.4545455,502 C75.3309091,502 76.0909091,499.649688 76.0909091,498.40625 L76.0909091,497.6875 L78.2727273,497.6875 C78.6745455,497.6875 79,497.367656 79,496.96875 L79,491.21875 C79,490.823438 78.6745455,490.5 78.2727273,490.5 L76.0909091,490.5 L76.0909091,488.34375 C76.0909091,487.948438 75.7654545,487.625 75.3636364,487.625 L63.7272727,487.625 C63.3261818,487.625 63,487.948438 63,488.34375 L63,488.34375 Z M66.6363636,500.5625 L72.4545455,500.5625 C74.508,500.5625 74.6323636,498.762031 74.6363636,498.402656 L74.6363636,489.0625 L64.4545455,489.0625 L64.4545455,498.40625 C64.4585455,498.718906 64.5549091,500.138437 65.9534545,500.483437 L66.6363636,500.5625 L66.6363636,500.5625 Z M77.5454545,491.9375 L77.5454545,496.25 L76.0909091,496.25 L76.0909091,491.9375 L77.5454545,491.9375 L77.5454545,491.9375 Z M71.3636364,483.3125 C70.9625455,483.3125 70.6363636,483.635938 70.6363636,484.03125 L70.6363636,485.46875 C70.6363636,485.867656 70.9625455,486.1875 71.3636364,486.1875 C71.7658182,486.1875 72.0909091,485.867656 72.0909091,485.46875 L72.0909091,484.75 L75,484.75 C75.4018182,484.75 75.7272727,484.430156 75.7272727,484.03125 L75.7272727,481.15625 C75.7272727,480.760938 75.4018182,480.4375 75,480.4375 L73.1818182,480.4375 L73.1818182,479.71875 C73.1818182,479.323438 72.8567273,479 72.4545455,479 C72.0534545,479 71.7272727,479.323438 71.7272727,479.71875 L71.7272727,481.15625 C71.7272727,481.555156 72.0534545,481.875 72.4545455,481.875 L74.2727273,481.875 L74.2727273,483.3125 L71.3636364,483.3125 L71.3636364,483.3125 Z M65.5454545,483.3125 C65.1443636,483.3125 64.8181818,483.635938 64.8181818,484.03125 L64.8181818,485.46875 C64.8181818,485.867656 65.1443636,486.1875 65.5454545,486.1875 C65.9476364,486.1875 66.2727273,485.867656 66.2727273,485.46875 L66.2727273,484.75 L69.1818182,484.75 C69.584,484.75 69.9090909,484.430156 69.9090909,484.03125 L69.9090909,481.875 C69.9090909,481.479688 69.584,481.15625 69.1818182,481.15625 L67.3636364,481.15625 L67.3636364,479.71875 C67.3636364,479.323438 67.0385455,479 66.6363636,479 C66.2352727,479 65.9090909,479.323438 65.9090909,479.71875 L65.9090909,481.875 C65.9090909,482.273906 66.2352727,482.59375 66.6363636,482.59375 L68.4545455,482.59375 L68.4545455,483.3125 L65.5454545,483.3125 L65.5454545,483.3125 Z" id="espace_detante"></path>
        </g>
    </g>
</svg>